﻿Donation Id,Donation Date,Donation Status,Donation Amount,Donation Frequency,Donor First Name,Donor Last Name,Donor Email Address,Donor Phone,Designation,Donor Address 1,Donor Address 2,Donor City,Donor State,Donor Zip,Donor Country,Amount  Received,Source,Source Detail,Check Number,How did you hear about Children's Future?,"If you learned of this organization through a friend, family member, or colleague please enter his/her name:"
1209174248,10/8/2014,Successful,$60.00 ,Monthly,Jason,Brimhall,user1@gmail.com,Not Shared,I want to be a monthly sponsor,Not Shared,Not Shared,Not Shared,Not Shared,Not Shared,Not Shared,$60.00 ,Network for Good,,,,
1209162076,10/6/2014,Successful,$35.00 ,Monthly,Nicki,Hayes,user2@gmail.com,201-511-2070,Sponsor a CFI Student,123 Main St,,Fort Lee,NJ,7024,US,$35.00 ,Network for Good,,,,
1209160156,10/5/2014,Successful,$35.00 ,Monthly,Rafael,Frey,user3@gmail.com,,,T_liweg 7,,H_lstein,BA,4434,CH,$35.00 ,Network for Good,,,"from a friend, family member, or colleague",Jenny Ciucci
1209158996,10/5/2014,Successful,$35.00 ,Monthly,Linda,Johnson,user4@gmail.com,,Sponsor a CFI Student,24 Bleeker St,,Colorado Springs,CO,80906,US,$35.00 ,Network for Good,,,,
1209158652,10/5/2014,Successful,$60.00 ,Monthly,Kent,Katz,user5@gmail.com,703-588-1190,Student Program Sponsorship,327 Davis Street,,San Fransico,CA,81144,US,$60.00 ,Network for Good,,,,
1209156779,10/4/2014,Successful,$35.00 ,Monthly,Jens,Gould,user6@gmail.com,,,30 Lavista Proper,,Frederiksberg,DE,2000,DK,$35.00 ,Network for Good,,,,
1209147324,10/3/2014,Successful,$35.00 ,Monthly,Linda,Gold,user7@gmail.com,303-454-1093,,30304 Arena Dr.,,Clinton ,NJ,,US,$33.95 ,Network for Good,,,,
1209137061,10/2/2014,Successful,$35.00 ,Monthly,Susan,Goud,user8@gmail.com,Not Shared,,Not Shared,Not Shared,Not Shared,Not Shared,Not Shared,Not Shared,$35.00 ,Network for Good,,,,
